^C:\MYPROJECTS\RISHIKESHRTRASSIGNMENTS\WINDOWS\OGLWINDOW\OGLWINDOW.CPP\OGLWINDOW.CPP
C:\MYPROJECTS\RISHIKESHRTRASSIGNMENTS\WINDOWS\OGLWINDOW\OGLWINDOW.CPP\DEBUG\VC142.PDB
C:\MYPROJECTS\RISHIKESHRTRASSIGNMENTS\WINDOWS\OGLWINDOW\OGLWINDOW.CPP\DEBUG\VC142.IDB
C:\MYPROJECTS\RISHIKESHRTRASSIGNMENTS\WINDOWS\OGLWINDOW\OGLWINDOW.CPP\DEBUG\OGLWINDOW.OBJ
