^C:\MyProjects\rishikeshrtrassignments\Windows\OGLWindow\OGLWindow.cpp\OGLWindow.cpp.vcxproj
C:\MyProjects\rishikeshrtrassignments\Windows\OGLWindow\OGLWindow.cpp\Release\OGLWindow.cpp.ipdb
C:\MyProjects\rishikeshrtrassignments\Windows\OGLWindow\OGLWindow.cpp\Release\OGLWindow.cpp.iobj
^C:\MyProjects\rishikeshrtrassignments\Windows\OGLWindow\OGLWindow.cpp\OGLWindow.cpp.vcxproj
C:\MyProjects\rishikeshrtrassignments\Windows\OGLWindow\OGLWindow.cpp\Release\OGLWindow.cpp.ipdb
C:\MyProjects\rishikeshrtrassignments\Windows\OGLWindow\OGLWindow.cpp\Release\OGLWindow.cpp.iobj
