^C:\MYPROJECTS\RISHIKESHRTRASSIGNMENTS\OPENGL\DEMO\WIN32-ASSIGNMENTS\ASSIGNMENT_06\WINDOWPAINT\WINDOWSPAINT.CPP
C:\MYPROJECTS\RISHIKESHRTRASSIGNMENTS\OPENGL\DEMO\WIN32-ASSIGNMENTS\ASSIGNMENT_06\WINDOWPAINT\X64\DEBUG\VC142.PDB
C:\MYPROJECTS\RISHIKESHRTRASSIGNMENTS\OPENGL\DEMO\WIN32-ASSIGNMENTS\ASSIGNMENT_06\WINDOWPAINT\X64\DEBUG\VC142.IDB
C:\MYPROJECTS\RISHIKESHRTRASSIGNMENTS\OPENGL\DEMO\WIN32-ASSIGNMENTS\ASSIGNMENT_06\WINDOWPAINT\X64\DEBUG\WINDOWSPAINT.OBJ
